…
# Exercise 3: Include examples

Show an example to group tree counts by neighbourhood using the
`vancouver_trees` dataset from `datateachr`

``` r
group_counts(vancouver_trees, neighbourhood_name)
```

    ## # A tibble: 22 × 2
    ##    neighbourhood_name       count
    ##    <chr>                    <int>
    ##  1 RENFREW-COLLINGWOOD      11386
    ##  2 KENSINGTON-CEDAR COTTAGE 11042
    ##  3 HASTINGS-SUNRISE         10547
    ##  4 DUNBAR-SOUTHLANDS         9415
    ##  5 SUNSET                    8367
    ##  6 KITSILANO                 8115
    ##  7 VICTORIA-FRASERVIEW       7789
    ##  8 SHAUGHNESSY               7009
    ##  9 KERRISDALE                6936
    ## 10 RILEY PARK                6870
    ## # … with 12 more rows

Function can also be used with pipe function

``` r
vancouver_trees %>% group_counts(neighbourhood_name)
```

    ## # A tibble: 22 × 2
    ##    neighbourhood_name       count
    ##    <chr>                    <int>
    ##  1 RENFREW-COLLINGWOOD      11386
    ##  2 KENSINGTON-CEDAR COTTAGE 11042
    ##  3 HASTINGS-SUNRISE         10547
    ##  4 DUNBAR-SOUTHLANDS         9415
    ##  5 SUNSET                    8367
    ##  6 KITSILANO                 8115
    ##  7 VICTORIA-FRASERVIEW       7789
    ##  8 SHAUGHNESSY               7009
    ##  9 KERRISDALE                6936
    ## 10 RILEY PARK                6870
    ## # … with 12 more rows

An example grouping by multiple variables in the `vancouver_trees`
dataset

``` r
group_counts(vancouver_trees, neighbourhood_name, curb, height_range_id)
```

    ## `summarise()` has grouped output by 'neighbourhood_name', 'curb'. You can override using the `.groups` argument.

    ## # A tibble: 402 × 4
    ## # Groups:   neighbourhood_name, curb [44]
    ##    neighbourhood_name       curb  height_range_id count
    ##    <chr>                    <chr>           <dbl> <int>
    ##  1 RENFREW-COLLINGWOOD      Y                   1  3781
    ##  2 KENSINGTON-CEDAR COTTAGE Y                   2  3034
    ##  3 RENFREW-COLLINGWOOD      Y                   2  2960
    ##  4 HASTINGS-SUNRISE         Y                   1  2862
    ##  5 HASTINGS-SUNRISE         Y                   2  2676
    ##  6 VICTORIA-FRASERVIEW      Y                   2  2474
    ##  7 KENSINGTON-CEDAR COTTAGE Y                   1  2464
    ##  8 SUNSET                   Y                   2  2453
    ##  9 SUNSET                   Y                   1  2251
    ## 10 VICTORIA-FRASERVIEW      Y                   1  2101
    ## # … with 392 more rows
…
